Covid19JHU
…
Check to see if Maximum cases is possible (>33,000,000)

global %>% filter(cases > 33000000)

## # A tibble: 32 x 5
##    Province_State Country_Region date          cases deaths
##    <chr>          <chr>          <date>        <int>  <int>
##  1 ""             US             2021-05-18 33001039 587174
##  2 ""             US             2021-05-19 33030332 587843
##  3 ""             US             2021-05-20 33060540 588521
##  4 ""             US             2021-05-21 33088492 589134
##  5 ""             US             2021-05-22 33108291 589625
##  6 ""             US             2021-05-23 33121157 589819
##  7 ""             US             2021-05-24 33146976 590261
##  8 ""             US             2021-05-25 33169715 590888
##  9 ""             US             2021-05-26 33193687 591861
## 10 ""             US             2021-05-27 33221141 593210
## # ... with 22 more rows
…
Now we want to tidy up the data. We are going to pivot the columns to make it more R friendly.

US_cases %>%
  pivot_longer(cols = -(UID:Combined_Key),
               names_to = "date",
               values_to = "cases")

## # A tibble: 1,717,788 x 13
##         UID iso2  iso3  code3  FIPS Admin2  Province_State Country_Region   Lat
##       <int> <chr> <chr> <int> <dbl> <chr>   <chr>          <chr>          <dbl>
##  1 84001001 US    USA     840  1001 Autauga Alabama        US              32.5
##  2 84001001 US    USA     840  1001 Autauga Alabama        US              32.5
##  3 84001001 US    USA     840  1001 Autauga Alabama        US              32.5
##  4 84001001 US    USA     840  1001 Autauga Alabama        US              32.5
##  5 84001001 US    USA     840  1001 Autauga Alabama        US              32.5
##  6 84001001 US    USA     840  1001 Autauga Alabama        US              32.5
##  7 84001001 US    USA     840  1001 Autauga Alabama        US              32.5
##  8 84001001 US    USA     840  1001 Autauga Alabama        US              32.5
##  9 84001001 US    USA     840  1001 Autauga Alabama        US              32.5
## 10 84001001 US    USA     840  1001 Autauga Alabama        US              32.5
## # ... with 1,717,778 more rows, and 4 more variables: Long_ <dbl>,
## #   Combined_Key <chr>, date <chr>, cases <int>
…
Need to clean it up so that Province_State is "" and not NA. This will help to get Population in the Global df. This was a workaround I found, otherwise I was getting errors.

uid$Province_State[is.na(uid$Province_State)] <- ""

Join population to Global dataset

global <- global %>%
  left_join(uid, by = c("Province_State", "Country_Region")) %>%
  select(-c(UID, FIPS)) %>%
  select(Province_State, Country_Region, date,
         cases, deaths, Population, Combined_Key)

global

## # A tibble: 127,588 x 7
##    Province_State Country_Region date       cases deaths Population Combined_Key
##    <chr>          <chr>          <date>     <int>  <int>      <dbl> <chr>       
##  1 ""             Afghanistan    2020-02-24     1      0   38928341 , Afghanist~
##  2 ""             Afghanistan    2020-02-25     1      0   38928341 , Afghanist~
##  3 ""             Afghanistan    2020-02-26     1      0   38928341 , Afghanist~
##  4 ""             Afghanistan    2020-02-27     1      0   38928341 , Afghanist~
##  5 ""             Afghanistan    2020-02-28     1      0   38928341 , Afghanist~
##  6 ""             Afghanistan    2020-02-29     1      0   38928341 , Afghanist~
##  7 ""             Afghanistan    2020-03-01     1      0   38928341 , Afghanist~
##  8 ""             Afghanistan    2020-03-02     1      0   38928341 , Afghanist~
##  9 ""             Afghanistan    2020-03-03     2      0   38928341 , Afghanist~
## 10 ""             Afghanistan    2020-03-04     4      0   38928341 , Afghanist~
## # ... with 127,578 more rows
Now we need to visualize the dataset. We will start with the US data set. Analyzing the US by state by state, region and date. Then we will add another column called deaths_per_mill.

US_by_state <- US %>%
  group_by(Province_State, Country_Region, date) %>%
  summarize(cases = sum(cases), deaths = sum(deaths),
            Population = sum(Population)) %>%
  mutate(deaths_per_mill = deaths * 1000000 / Population) %>%
  select(Province_State, Country_Region, date, cases, deaths, deaths_per_mill, Population) %>%
  ungroup()

## `summarise()` has grouped output by 'Province_State', 'Country_Region'. You can override using the `.groups` argument.

US_by_state

## # A tibble: 29,812 x 7
##    Province_State Country_Region date       cases deaths deaths_per_mill
##    <chr>          <chr>          <date>     <int>  <int>           <dbl>
##  1 Alabama        US             2020-01-22     0      0               0
##  2 Alabama        US             2020-01-23     0      0               0
##  3 Alabama        US             2020-01-24     0      0               0
##  4 Alabama        US             2020-01-25     0      0               0
##  5 Alabama        US             2020-01-26     0      0               0
##  6 Alabama        US             2020-01-27     0      0               0
##  7 Alabama        US             2020-01-28     0      0               0
##  8 Alabama        US             2020-01-29     0      0               0
##  9 Alabama        US             2020-01-30     0      0               0
## 10 Alabama        US             2020-01-31     0      0               0
## # ... with 29,802 more rows, and 1 more variable: Population <int>
Now look at total of US.

US_totals <- US_by_state %>%
  group_by(Country_Region, date) %>%
  summarize(cases = sum(cases), deaths = sum(deaths),
            Population = sum(Population)) %>%
  mutate(deaths_per_mill = deaths *1000000 / Population) %>%
  select(Country_Region, date, cases, deaths, deaths_per_mill, Population) %>%
  ungroup()

## `summarise()` has grouped output by 'Country_Region'. You can override using the `.groups` argument.

US_totals

## # A tibble: 514 x 6
##    Country_Region date       cases deaths deaths_per_mill Population
##    <chr>          <date>     <int>  <int>           <dbl>      <int>
##  1 US             2020-01-22     1      1         0.00300  332875137
##  2 US             2020-01-23     1      1         0.00300  332875137
##  3 US             2020-01-24     2      1         0.00300  332875137
##  4 US             2020-01-25     2      1         0.00300  332875137
##  5 US             2020-01-26     5      1         0.00300  332875137
##  6 US             2020-01-27     5      1         0.00300  332875137
##  7 US             2020-01-28     5      1         0.00300  332875137
##  8 US             2020-01-29     6      1         0.00300  332875137
##  9 US             2020-01-30     6      1         0.00300  332875137
## 10 US             2020-01-31     8      1         0.00300  332875137
## # ... with 504 more rows
…
US_state_totals %>% slice_max(cases_per_thou)

## # A tibble: 1 x 6
##   Province_State deaths  cases population cases_per_thou deaths_per_thou
##   <chr>           <int>  <int>      <int>          <dbl>           <dbl>
## 1 North Dakota     1554 110544     762062           145.            2.04

x_grid <- seq(1, 151)
new_df <- tibble(cases_per_thous = x_grid)
US_state_totals %>% mutate(pred = predict(mod))

## # A tibble: 55 x 7
##    Province_State  deaths  cases population cases_per_thou deaths_per_thou  pred
##    <chr>            <int>  <int>      <int>          <dbl>           <dbl> <dbl>
##  1 Alabama          11306 5.49e5    4903185          112.            2.31   1.87
##  2 Alaska             373 7.09e4     740995           95.6           0.503  1.60
##  3 Arizona          17822 8.89e5    7278717          122.            2.45   2.04
##  4 Arkansas          5874 3.45e5    3017804          114.            1.95   1.91
##  5 California       63274 3.81e6   39512223           96.3           1.60   1.61
##  6 Colorado          6723 5.53e5    5758736           96.1           1.17   1.60
##  7 Connecticut       8270 3.49e5    3565287           97.8           2.32   1.63
##  8 Delaware          1679 1.10e5     973764          112.            1.72   1.88
##  9 District of Co~   1141 4.92e4     705749           69.8           1.62   1.16
## 10 Florida          37555 2.34e6   21477737          109.            1.75   1.82
## # ... with 45 more rows
…
